Climate Data Analysis Lab
…
climate_sum <- climate %>%
  group_by(City, State, month) %>%
  summarize(mean.temp = mean(temp), mean.precip=mean(precip))

In this code, we create a new data frame, “climate_sum” which has the
mean temperature and mean precipitation for each city for each month.
First the code specifies that we want the groups to by City, State, and
Month. Then we use summarize as we did before to get the
mean temperature and precipitation.

climate_sum

## # A tibble: 120 x 5
## # Groups:   City, State [10]
##    City  State month mean.temp mean.precip
##    <fct> <fct> <int>     <dbl>       <dbl>
##  1 Ajo   AZ        1      12.7      19.7  
##  2 Ajo   AZ        2      14.4       8.86 
##  3 Ajo   AZ        3      16.6      26.0  
##  4 Ajo   AZ        4      21.5       5.05 
##  5 Ajo   AZ        5      25.4       0.975
##  6 Ajo   AZ        6      31.2       1.61 
##  7 Ajo   AZ        7      32.4      29.7  
##  8 Ajo   AZ        8      32.5      48.5  
##  9 Ajo   AZ        9      30.2      21.5  
## 10 Ajo   AZ       10      24.0       9.41 
## # … with 110 more rows
…
